{
    "01CM300K11": "20410051651",
    "01DTSTRIO19": "20414473208",
    "20AR075O16": "20413244606",
    "20CR200H13": "20411376209",
    "17BC200R14": "20411748653",
    "29HS100A18": "20414043042",
    "23EP075A16": "20413107706",
    "20ET100CD16A": "20413615013",
    "26PM100RH15": "20412607527",
    "20ET075CD19": "20414385860",
    "24MA030R18": "20414430305",
    "18SA075TL17": "20413368934",
    "01MF030K18H": "20414255013",
    "20GR150CD15": "20412472958",
    "10CACLA18": "20414267200",
    "17AS075F15": "20412660260",
    "17SH300G17": "20413654414",
    "29RH500A15": "20412624677",
    "17SH500F14": "20412630236",
    "17IC200D15": "20412529461",
    "38WM100A16": "20413017253",
    "17SH300G18": "20414077367",
    "01EC200K17": "20413997120",
    "24CHGWP19": "20414562881",
    "17GD240T15": "20412529459",
    "26BG100VB15": "20412686617",
    "27DF125I17": "20413593011",
    "27MI150I15": "20412472969",
    "38MI150A18": "20414077371",
    "01HF100K17": "20413610171",
    "01CLS050K19": "20414582650",
    "01CL050K15": "20412302968",
    "01SHBHNH18": "20414284462",
    "01SHBHKR18": "20414284682",
    "10LPDSH18": "20414284767",
    "15LR015VB6": "20412955216",
    "11EH150A18": "20413874299",
    "18TDLINSET18": "20414237706",
    "20OCCVS17": "20413588768",
    "01SHCR019": "20414437302",
    "27ER200I17": "20413452627",
    "11MW200I19": "20414546747",
    "01BM050K19": "20414385856",
    "29MA075A18H": "20414282365",
    "24MA030P15": "20412472966",
    "01SL500VE": "20410051729",
    "15MA030VB3": "20411405871",
    "15SL300VB3": "20410051870",
    "01RV500K14": "20411648425",
    "01SL500LV": "20410051728",
    "15EC300L11": "20410051775",
    "24ET075CB4": "20411618315",
    "17BO100R16": "20413394710",
    "20ET075HC6": "20413107703",
    "26SD100FC15": "20412593597",
    "26SD100RH15": "20412624676",
    "01SA050K18": "20414282354",
    "20SA050O16": "20413920069",
    "24SA050R16": "20414043041",
    "24GD075R15": "20412529464",
    "11AQDS18": "20414026300",
    "20GD250OC16": "20413163499",
    "15MC150VBA8": "20414026354",
    "20GD250HC6": "20413163498",
    "17RS500F17": "20414077366",
    "15CP150VBC8": "20414026355",
    "38FC200A15": "20412841400",
    "18TDLSETN18": "20414237700",
    "18HD250TL17I": "20413996483",
    "29HD075A15": "20412529467",
    "01BABDIS19": "20414526086",
    "24LC075CB5": "20412472963",
    "17AS500N18": "20414176360",
    "17SH075G18": "20414176363",
    "17RS500N18": "20414176362",
    "15SH250VA17": "20413920065",
    "26BG100L15": "20412686616",
    "27DL200I13US": "20412437753",
    "26BG100RH15": "20412624675",
    "27BBM040I15": "20412452742",
    "27BY015I14": "20412331661",
    "27CN050I14": "20411673724",
    "27CP050I14A": "20411765981",
    "11CD050A18": "20413874298",
    "27DB015I16": "20413061755",
    "15SP035L14": "20411765976",
    "17HE010R14": "20411748659",
    "15LH300VB3": "20410051827",
    "01MA150K16": "20413394709",
    "29MA030A178H": "20414282364",
    "20CR150H1": "20410051895",
    "20GR150H14": "20412331658",
    "20HR030H7": "20410051929",
    "15MA030L11": "20410051830",
    "24MA030CB4": "20411618319",
    "15MA030VA5": "20412593580",
    "11EP090MI18": "20414546754",
    "01BS020K18A": "20413920060",
    "01SA100LT": "20410051711",
    "24LC250R18": "20414430304",
    "17DO050F13": "20411435078",
    "20DO050O16": "20413593009",
    "24LC250P15": "20412427893",
    "10CAMAG18": "20414282358",
    "01BR012K18H": "20414255001",
    "01SA080K17": "20413654373",
    "24MA030R14": "20411673733",
    "11MH075A19": "20414385859",
    "01MR030K18H": "20414255015",
    "17SH075F15": "20412593584",
    "01MF150K18H": "20414255014",
    "01DF200K18H": "20414255007",
    "01LT300K12": "20411743597",
    "01SHBVS218": "20414048834",
    "12LC250NO1": "20413361625",
    "15SE400VB5": "20413244603",
    "29HD500A15": "20412607531",
    "15BA500L16A": "20413361627",
    "24GD075CB5": "20412452739",
    "15GD070VB17": "20413654402",
    "15GD500VB3": "20411730420",
    "17MC200N18": "20414077364",
    "17SH300N18": "20414077368",
    "26FAG15BA15": "20412660279",
    "24CBVS18": "20414284685",
    "27LD200I14": "20411673716",
    "27MQ065I15A": "20412841398",
    "27OR030I18": "20414077370",
    "27RM300I14": "20411673722",
    "01BM020KB19": "20414551260",
    "01LH300KB19": "20414510949",
    "11BH050A18": "20413996478",
    "20CEDHVS18": "20414083288",
    "15CVERSET18": "20414212747",
    "24AF050R18": "20414430297",
    "15MA075VB4": "20412331657",
    "15HE005L14": "20412607521",
    "01RL500K14": "20412350873",
    "15SA070VB6": "20413920064",
    "01HN0075K19": "20414278063",
    "12ET075NO2": "20413361622",
    "23EP075I16": "20413107707",
    "23P075TV17": "20413488035",
    "12EP075OR": "20412542958",
    "24MA030S6": "20413107716",
    "20ET100OC13": "20411570556",
    "18BI030TL17ET": "20413606289",
    "01BK010K17DTS": "20413654321",
    "01SA250LT16": "20413654383",
    "20SA050CD16A": "20414043039",
    "01SHDSH18": "20414295247",
    "24SA050R18": "20414430306",
    "39FM050P16": "20413107722",
    "24GD250R14": "20411673728",
    "01MA030K18H": "20414255011",
    "18EP090TL17I": "20413996482",
    "20GD250CD16A": "20413394713",
    "24LC250R14": "20411673732",
    "01BW012K18H": "20414255002",
    "17SH300D14": "20411743614",
    "17RC500G18": "20414510955",
    "01MOMBAB19": "20414526087",
    "01SHFVS17": "20413588773",
    "10COLHC18": "20414267206",
    "24CM030C19": "20414430298",
    "24GD250CB4": "20411618316",
    "29HD250A18H": "20414282361",
    "18GD250TL17ET": "20413606292",
    "15RB500L17": "20413654409",
    "38EV075A17": "20413361637",
    "12NOSETN19": "20414562763",
    "17AS500G18": "20414176359",
    "17RC500N18": "20414176361",
    "17HR100G13": "20411419629",
    "24CBEGG19": "20414541397",
    "24GD250R18": "20414430302",
    "27DCS050I16": "20412770947",
    "38RC050A17": "20413361638",
    "38WS030A18": "20413874302",
    "01BP150K19": "20414385477",
    "11GN195A18": "20413996480",
    "18TDLGWP19": "20414562880",
    "17AS250G18": "20414077360",
    "11AQGTSET19": "20414562890",
    "01EP050KB19": "20414510946",
    "27EV200I14": "20411673712",
    "52AS006N18": "20414176367",
    "01MV030K14": "20412331654",
    "01MA150K19DTS": "20414430293",
    "20AR075H16": "20413244605",
    "01HN0075K14": "20411570557",
    "20SB100H11": "20411056643",
    "29ALMVS19": "20414541398",
    "11EP090RS18": "20414546755",
    "24ET075S6": "20413107711",
    "11EP090CR18": "20414546752",
    "26SD100L15": "20412593598",
    "01MR030K14": "20411570552",
    "10KTRIO18": "20414267196",
    "15MA075L11": "20410051837",
    "24MA075R14": "20411673735",
    "01HD200K15": "20412302938",
    "01ED200K17": "20413654361",
    "01BLKAR18": "20414267208",
    "20DO075BX": "20410051903",
    "01DTSHC19": "20414473212",
    "20SC050H12": "20411056644",
    "11MH006A19": "20414550924",
    "20NV150CD15": "20412463511",
    "27AA125MQ": "20410052168",
    "27DIVSET18": "20414026316",
    "24ET050C19": "20414430299",
    "18BL250TL17I": "20413996481",
    "18GD250TL17": "20413361630",
    "29HD250A15": "20412686619",
    "15BA500VB3": "20410051743",
    "15GD250VA5": "20412660256",
    "15RC500VB17": "20413610172",
    "17RS500G18": "20413610173",
    "17AS250N18": "20414077362",
    "17SH500G18": "20414176364",
    "17SH500N18": "20414176365",
    "24LC250CB4": "20411618317",
    "26BG100FC15": "20412660277",
    "27HC050I16": "20413061756",
    "29LC200A18H": "20414282363",
    "29BLALM18": "20414267202",
    "27DH030I17": "20413610177",
    "15DO050VA5": "20412874749",
    "01PI150KA": "20410051699",
    "01PI030KA": "20410051697",
    "01CP200K17": "20413571232",
    "01LC250K17": "20413593002",
    "01CV050K15": "20412363103",
    "01HV030K16": "20412660248",
    "01KTKAR18": "20414267198",
    "15VERSET18": "20414212746",
    "11ARSET18": "20414375861",
    "24ARLVS17": "20413588698",
    "01SHCC019": "20414437300",
    "15BLVER18": "20414267203",
    "11CM125I19": "20414546750",
    "15RG500L14": "20411748644",
    "18ET090TL17": "20413606291",
    "11EP090PB18": "20414546753",
    "20ET100BX13": "20411570555",
    "01MC030K14": "20412331653",
    "26PM100VB15": "20412607528",
    "29SA050A14": "20412427896",
    "01SA250LV": "20410051718",
    "11LH200I19": "20414546749",
    "24LC075R15": "20412472965",
    "26CF100DP15": "20412686618",
    "20GH050CD15": "20412452737",
    "39EP200P16": "20412905934",
    "17AS250G13": "20410048870",
    "01SHBHOL18": "20414284461",
    "15KTVER18": "20414267201",
    "01SHBVS318": "20414284684",
    "24LC250S6": "20413107713",
    "01BK150K0": "20410051638",
    "15LC070VB5": "20412660259",
    "15LC250VB3": "20410051823",
    "17GD250R14": "20411748657",
    "17BD125G14": "20411652325",
    "17SH300D15": "20412463510",
    "17SH500D16": "20412905929",
    "01LH075KB19": "20414510948",
    "27DS030I17": "20413610178",
    "29BP100A18": "20413973906",
    "27HCR050I16": "20413163504",
    "38FT200A18": "20413654445",
    "01CL200K17": "20413571230",
    "01DTSSB219": "20414473210",
    "01BL012K20": "20414582648",
    "01SHBHKC18": "20414284463",
    "11GD050A18": "20413874300",
    "18BI030TL17": "20413361628",
    "24EF050R18": "20414455555",
    "12MA030NO1": "20413361626",
    "29MA030A17": "20413361636",
    "15LM300L11": "20410051821",
    "01BM150K17": "20413244599",
    "15GN300L11": "20410051804",
    "15RS500VB3": "20411673714",
    "23ET075V16": "20413107708",
    "11EP090CN18": "20414546751",
    "18SA075TL17ET": "20413654429",
    "01SA100LV": "20410051713",
    "20DO075CD15": "20412452735",
    "01CP200K18H": "20414255006",
    "20DO130CD17": "20413452625",
    "20DO130HC7": "20413452626",
    "20AR075CD16A": "20413920068",
    "20AR075HC6": "20413107702",
    "01BL012K18H": "20414254999",
    "39MP150P17": "20413610179",
    "01ML125K17": "20413244601",
    "17RC500F17": "20414077365",
    "15BR050VB7": "20413571234",
    "17AS500F17": "20413666884",
    "24KTCBL18": "20414267199",
    "01DTSSB319": "20414473211",
    "01MR030K19DTS": "20414430294",
    "24MA075CB4": "20411618318",
    "18LC250TL17ET": "20413606293",
    "18LC250TL17": "20413244604",
    "01BK010K14": "20411570545",
    "29GE200A16": "20413420130",
    "24GD250S6": "20413163501",
    "24GD250C19": "20414430301",
    "38EC015A16": "20413017252",
    "15AS250VA5": "20412593576",
    "17AS075G18": "20414176358",
    "01CL300KB19": "20414430290",
    "29VC240A16": "20413571243",
    "24BLCHB18": "20414267197",
    "27BBL040I15": "20412452741",
    "27DE015I13US": "20412437754",
    "27CPS050I16": "20412874753",
    "27HSR030I16": "20413107719",
    "27HS030I16": "20413107718",
    "27SP030I14": "20412660286",
    "29LC200A14": "20411652333",
    "29ALMDSH18": "20414284876",
    "38ST016A18": "20414582656",
    "38UV030A17": "20413571244",
    "38WC050A18": "20413874301",
    "01BL012K15": "20412363104",
    "01BF070K18": "20413895959",
    "01BS020K19": "20414490168",
    "01SHBHKT18": "20414284683",
    "01SL0045K13": "20411629969",
    "10HCTRIO18": "20414212748",
    "20CEDVS17": "20413588700",
    "01SA250VE": "20410051719",
    "01SA100VE16": "20413593006",
    "11AQCTSET19": "20414562889",
    "29MA075A17": "20413420131",
    "29MA075A16": "20412841399",
    "17HM100R16": "20413571237",
    "15ET100VA5": "20412593577",
    "24ET075R14": "20411673727",
    "11EP090FM18": "20414546756",
    "15ET100VB3": "20410051779",
    "24VF050R18": "20414551262",
    "26PM100FC15": "20412607525",
    "26SD100VB15": "20412593599",
    "20ET100H14": "20411730411",
    "10KTRIF18": "20414267205",
    "01EM075K18": "20413874296",
    "24SA050CB6": "20413610175",
    "20GY015CD17": "20413420127",
    "24SA050S6": "20413163503",
    "01HNR0075K19": "20414278065",
    "15GD250VBC8": "20414176356",
    "01MA150K18H": "20414255012",
    "10BOPSET18": "20414284875",
    "24ET050R18": "20414430300",
    "17AS250F13": "20411743611",
    "17SH300F13": "20411743615",
    "18EP090TL17": "20413185564",
    "18TDLLSETN18": "20414237823",
    "01MA030K16": "20413420120",
    "12MA075NO18": "20414255016",
    "15LC250VA5": "20412686612",
    "01CD250K17": "20413654358",
    "12GD250NO1": "20413361624",
    "15GD250L14": "20411765974",
    "17MC200G18": "20414077363",
    "17SE125D15": "20412463508",
    "17SH075D15": "20412463509",
    "01BM100KB19": "20414430288",
    "29EC200A13": "20412463512",
    "01HD250K17": "20413571233",
    "29MS250A19": "20414385863",
    "24LC250C19": "20414282360",
    "27DC050I17": "20413610176",
    "27MP150I13": "20411376213",
    "01CL075KB19": "20414430289",
    "29ALMEGG19": "20414541395",
    "15LC250L14": "20412452731",
    "10QUAGD18": "20414267204",
    "01SHEAEGG19": "20414541394",
    "15GD250VB17": "20413654405",
    "18PC050TL18ET": "20414282359",
    "15VEREGG19": "20414541396"
}
