<svg xmlns="http://www.w3.org/2000/svg" width="200.058" height="52.925" viewBox="0 0 200.058 52.925">
  <g id="logo" transform="translate(-41.563 -19.255)">
    <path id="Path_1" data-name="Path 1" d="M448.278,93.513a9.65,9.65,0,0,1-3.233-1.08,35.32,35.32,0,0,1-4.181-2.708,12.823,12.823,0,0,0-3.124-1.666,17.007,17.007,0,0,0,4.743-2q4.029-2.862,4.023-7.016a5.341,5.341,0,0,0-1.4-3.877,5.091,5.091,0,0,0-3.832-1.616c-.141,0-1.83.111-5.078.32a13.2,13.2,0,0,0-4.838,1.019,16.419,16.419,0,0,0-2.592,1.542c-.046-.225-.127-.581-.257-1.071l-.3-1.076-6.043.237a7.717,7.717,0,0,1,1.2,2.671,40.421,40.421,0,0,1,.585,7.8,49.006,49.006,0,0,1-.432,7.171c-.127.858-.352,1.927-.666,3.182h5.919q-.259-2.879-.257-5.316c0-.169.015-.48.049-.92a18.069,18.069,0,0,1,3.211.276,7.607,7.607,0,0,1,2.649,1.18c1.081.6,2.148,1.747,4.313,3.424a7.3,7.3,0,0,0,1.787,1.1,5.045,5.045,0,0,0,1.68.216q1.448,0,4.357-.216a4.82,4.82,0,0,0,1.663-.381C448.368,93.992,448.368,93.522,448.278,93.513ZM429.584,88l-1.026-.021c.107-1.7.208-2.8.291-3.341a12.654,12.654,0,0,1,3.075-6.923c1.938-2.156,2.873-2.851,4.68-2.851a4.832,4.832,0,0,1,3.552,1.663,3.729,3.729,0,0,1,1.248,2.6,5.556,5.556,0,0,1-.586,2.35,10.046,10.046,0,0,1-4.579,4.433C433.636,87.3,432.647,88,429.584,88Z" transform="translate(-235.125 -33.54)" fill="#b4975a"/>
    <path id="Path_2" data-name="Path 2" d="M133.355,75.779a3.983,3.983,0,0,1-1.029-.106l-2.114-.537a10.143,10.143,0,0,0-2.478-.432c-1.535-.042-2.4-.13-3.711-.257a16.361,16.361,0,0,0-1.794-.109c-4,0-6.734,1.679-9.307,5.038a12.361,12.361,0,0,0-2.585,7.688,8.9,8.9,0,0,0,2.22,6.438,7.532,7.532,0,0,0,6.079,2.628,13.82,13.82,0,0,0,2.2-.195c1.359-.168,2.152-.261,2.366-.278.918-.086.735-.158,1.674-.219.805-.138,1.455-.275,1.96-.4a16.068,16.068,0,0,0,5.077-2.541,30,30,0,0,0,.494,3.72l5.579-.472a24.661,24.661,0,0,1-.864-6.871,90.134,90.134,0,0,1,1.12-14.516A14.308,14.308,0,0,1,133.355,75.779Zm-1.289,6.872a15.361,15.361,0,0,1-.5,1.951,16.97,16.97,0,0,1-4.329,6.833c-2.252,2.154-3.266,3.232-5.262,3.232a5.974,5.974,0,0,1-4.439-2.2,8.046,8.046,0,0,1-1.793-5.381,10.327,10.327,0,0,1,4.353-8.851,9.555,9.555,0,0,1,5.544-2.345c1.981-.009,2.588.61,4.053,1.826a9.671,9.671,0,0,1,2.521,3.56A4.028,4.028,0,0,1,132.066,82.651Z" transform="translate(-42.487 -34.029)" fill="#b4975a"/>
    <path id="Path_3" data-name="Path 3" d="M58.746,25.066c-6.538-1.226-17.183-5.811-17.183-5.811L42.7,27s6.9,1.911,11.42,2.591c1.715.256,3.57.472,5.5.638-1.89,4.013-3.946,8.173-5.52,11.609-4.581,10-5.024,20.561,2.583,23.583,4.2,1.668,10.88-2.738,12.232-3.557.228-.137-1.071-3.033-1.258-2.921-1.731,1.034-4.168,2.215-7.259.849-4.394-1.942-4.162-9.871-.691-17.555,1.676-3.71,3.714-7.49,6.095-11.662a82.745,82.745,0,0,0,11.218-.4l5.91-.761C88.2,28.646,91.82,27.9,91.82,27.9l3.741-8.386S72.988,27.73,58.746,25.066Z" transform="translate(0 0)" fill="#b4975a"/>
    <path id="Path_4" data-name="Path 4" d="M296.8,75.779a3.985,3.985,0,0,1-1.029-.106l-2.114-.537a10.143,10.143,0,0,0-2.478-.432c-1.535-.042-2.4-.13-3.714-.257a16.356,16.356,0,0,0-1.794-.109c-4,0-6.734,1.679-9.307,5.038a12.363,12.363,0,0,0-2.584,7.688A8.9,8.9,0,0,0,276,93.5a7.532,7.532,0,0,0,6.079,2.628,13.824,13.824,0,0,0,2.2-.195c1.358-.168,2.153-.261,2.366-.278.918-.086.735-.158,1.674-.219.808-.138,1.457-.275,1.962-.4a16.072,16.072,0,0,0,5.077-2.541,30.117,30.117,0,0,0,.493,3.72l5.579-.472a24.677,24.677,0,0,1-.864-6.871,90.088,90.088,0,0,1,1.12-14.516A14.309,14.309,0,0,1,296.8,75.779Zm-1.288,6.872a15.36,15.36,0,0,1-.5,1.951,16.966,16.966,0,0,1-4.329,6.833c-2.254,2.154-3.269,3.232-5.264,3.232a5.974,5.974,0,0,1-4.44-2.2,8.046,8.046,0,0,1-1.793-5.381,10.326,10.326,0,0,1,4.353-8.851,9.557,9.557,0,0,1,5.547-2.345c1.981-.009,2.588.61,4.053,1.826a9.667,9.667,0,0,1,2.522,3.56A4.029,4.029,0,0,1,295.508,82.651Z" transform="translate(-143.456 -34.029)" fill="#b4975a"/>
    <path id="Path_5" data-name="Path 5" d="M514.978,75.779a3.985,3.985,0,0,1-1.029-.106l-2.114-.537a10.137,10.137,0,0,0-2.478-.432c-1.535-.042-2.4-.13-3.711-.257a16.355,16.355,0,0,0-1.794-.109c-4,0-6.734,1.679-9.307,5.038a12.36,12.36,0,0,0-2.584,7.688A8.9,8.9,0,0,0,494.18,93.5a7.533,7.533,0,0,0,6.079,2.628,13.821,13.821,0,0,0,2.2-.195c1.358-.168,2.153-.261,2.366-.278.918-.086.735-.158,1.674-.219.805-.138,1.455-.275,1.96-.4a16.061,16.061,0,0,0,5.077-2.541,30.154,30.154,0,0,0,.494,3.72l5.579-.472a24.659,24.659,0,0,1-.865-6.871,90.136,90.136,0,0,1,1.121-14.516A14.307,14.307,0,0,1,514.978,75.779Zm-1.289,6.872a15.45,15.45,0,0,1-.5,1.951,16.974,16.974,0,0,1-4.329,6.833c-2.252,2.154-3.266,3.232-5.262,3.232a5.974,5.974,0,0,1-4.44-2.2,8.042,8.042,0,0,1-1.793-5.381,10.327,10.327,0,0,1,4.352-8.851,9.553,9.553,0,0,1,5.544-2.345c1.981-.009,2.588.61,4.053,1.826a9.667,9.667,0,0,1,2.522,3.56A4.035,4.035,0,0,1,513.69,82.651Z" transform="translate(-278.246 -34.029)" fill="#b4975a"/>
    <path id="Path_6" data-name="Path 6" d="M369.491,75.592a6.155,6.155,0,0,0-3.839-1.419c-1.38,0-2.388.338-5.244,1.013l-1.591.364c-1.407.287-2.308.488-2.691.605a11.334,11.334,0,0,0-3.769,2.129,9.721,9.721,0,0,0-3.6,7.728,8.627,8.627,0,0,0,.648,3.477,8.8,8.8,0,0,0,1.72,2.62c3.432,3.644,13.128,1.437,13.915,1.422l.455-1.616c-1.57.133-2.413.194-3.646.194-2.9,0-4.922-.763-6.072-2.3a7.814,7.814,0,0,1-1.461-4.864,8.813,8.813,0,0,1,2.539-6.354,6.53,6.53,0,0,1,4.695-2.239,3.914,3.914,0,0,1,2.828,1.442,7.6,7.6,0,0,1,1.638,2.3c.121,2.282.17,4.111.17,5.472a62.16,62.16,0,0,1-.6,10.207,10.678,10.678,0,0,1-5.187,7.626,7.992,7.992,0,0,1-4.1,1.183,4.872,4.872,0,0,1-2.65-.755,3.545,3.545,0,0,1-2.193-3.21,5.272,5.272,0,0,1,.553-2.826c.1-.145-1.049-.915-1.049-.915s-4.982,4.416-4.982,5.306c0,.946-.127,1.363.434,2.01a4.746,4.746,0,0,0,2.562,1.53,15.653,15.653,0,0,0,3.639.386c.672,0,1.085-.057,2.333-.171,1.548-.14,2.378-.214,2.473-.214l2.525-.155a14.629,14.629,0,0,0,3.7-.773,10.553,10.553,0,0,0,5.838-4.391,11.029,11.029,0,0,0,1.326-4.072,47.338,47.338,0,0,0,.588-7.107l.169-6.954a33.045,33.045,0,0,1,.413-4.329,13.819,13.819,0,0,1,.772-2.8l-.726-.539C371.122,74.922,370.274,75.247,369.491,75.592Z" transform="translate(-188.059 -33.927)" fill="#b4975a"/>
    <path id="Path_7" data-name="Path 7" d="M219.77,82.582a7.684,7.684,0,0,0-1.718-5.078,7.864,7.864,0,0,0-6.4-2.606c-.657,0-1.532.016-2.619.043l-1.32.041-1.68.052a12.879,12.879,0,0,0-3.5.662,16.22,16.22,0,0,0-4.164,2.151c-.059-.354-.139-.808-.237-1.354l-.258-1.459q-1.254.143-5.427.165h-1.033a12.43,12.43,0,0,1,.922,1.945,15.166,15.166,0,0,1,.633,4.775c0,1.248-.088,3.015-.24,5.3s-.281,3.784-.412,4.483c-.454,2.441-.733,3.912-.817,4.415h5.747c-.011-.936-.015-1.7-.015-2.287,0-6.512,1.338-11.579,5.151-15.186,1.853-1.731,2.8-2.6,5.066-2.6a5.69,5.69,0,0,1,4.613,2.086,7.031,7.031,0,0,1,2.09,5.04,9.7,9.7,0,0,1-.6,3.254,39.056,39.056,0,0,1-2.625,5.435c-.533.98-2.442,4.258-2.442,4.258h9.588l1.678-2.8a36.421,36.421,0,0,1-4.2.462c1.039-1.941,1.421-2.668,2.217-4.1A14.408,14.408,0,0,0,219.77,82.582Z" transform="translate(-92.575 -34.374)" fill="#b4975a"/>
  </g>
</svg>
