<?xml version="1.0" standalone="no"?>
<!DOCTYPE svg PUBLIC "-//W3C//DTD SVG 1.1//EN" "http://www.w3.org/Graphics/SVG/1.1/DTD/svg11.dtd" >
<svg xmlns="http://www.w3.org/2000/svg">
<defs>
  <font id="iconfont" horiz-adv-x="188">
    <font-face font-family="iconfont"
      units-per-em="36" ascent="36"
      descent="0" />
    <missing-glyph horiz-adv-x="0" />
    <glyph glyph-name="arrow-back"
      unicode="&#xEA01;"
      horiz-adv-x="27" d="M8.4088314 18L23.68233765 2.5714287L21.13675335 0L3.31766235 18L21.13675335 36L23.68233765 33.4285713z" />
    <glyph glyph-name="arrow-down"
      unicode="&#xEA02;"
      horiz-adv-x="60" d="M30 10.542L55.716 36L60 31.758L30 2.058L0 31.758L4.284 36z" />
    <glyph glyph-name="arrow-left-md"
      unicode="&#xEA03;"
      horiz-adv-x="21.6" d="M3.7746 18L20.6388 1.5462L19.2402 0.18L0.9612 18L19.2402 35.82L20.6388 34.4538z" />
    <glyph glyph-name="arrow-right-md"
      unicode="&#xEA04;"
      horiz-adv-x="21.6" d="M17.8236 18L0.9612 34.4538L2.358 35.82L20.6388 18L2.358 0.18L0.9612 1.5462z" />
    <glyph glyph-name="arrow-up"
      unicode="&#xEA05;"
      horiz-adv-x="60" d="M30 27.516L55.716 2.058L60 6.3L30 36L0 6.3L4.284 2.058z" />
    <glyph glyph-name="bag"
      unicode="&#xEA06;"
      horiz-adv-x="36" d="M7.2 25.2H28.8V5.4H7.2V25.2zM9 23.4V7.2H27V23.4H9zM23.4 25.2H12.6C12.6 29.178 15.0174 32.4 18 32.4S23.4 29.178 23.4 25.2zM21.6 25.2C21.6 28.1826 19.989 30.6 18 30.6S14.4 28.1826 14.4 25.2H21.6z" />
    <glyph glyph-name="bag-dark"
      unicode="&#xEA07;"
      horiz-adv-x="27" d="M13.5 34.443C17.5995 34.443 20.925 31.0005 20.925 26.75475V21.627H25.875V1.125H1.125V21.627H6.075V26.75475L6.08625 27.1755C6.2955 31.2255 9.5355 34.443 13.5 34.443zM13.5 31.878C10.76625 31.878 8.55 29.583 8.55 26.75475V21.627H18.45V26.75475C18.45 29.58525 16.23375 31.88025 13.5 31.88025z" />
    <glyph glyph-name="bag-grey"
      unicode="&#xEA08;"
      horiz-adv-x="27" d="M13.5 34.443C17.5995 34.443 20.925 31.0005 20.925 26.75475V21.627H25.875V1.125H1.125V21.627H6.075V26.75475L6.08625 27.1755C6.2955 31.2255 9.5355 34.443 13.5 34.443zM13.5 31.878C10.76625 31.878 8.55 29.583 8.55 26.75475V21.627H18.45V26.75475C18.45 29.58525 16.23375 31.88025 13.5 31.88025z" />
    <glyph glyph-name="hamburger"
      unicode="&#xEA09;"
      horiz-adv-x="72" d="M72 5.1428571428571L72 0L0 0L0 5.1428571428571L72 5.1428571428571zM72 36L72 30.8571428571429L0 30.8571428571429L0 36L72 36z" />
    <glyph glyph-name="heart"
      unicode="&#xEA0A;"
      horiz-adv-x="36" d="M23.6542416320429 27.0666A4.932 4.932 0 0 0 27.2362416320429 25.5762A5.8086 5.8086 0 0 0 27.2362416320429 17.3952L18.0184416320429 7.8966L8.8852416320429 17.3772A5.8086 5.8086 0 0 0 8.8852416320429 25.5762A4.932 4.932 0 0 0 12.3646416320429 27.0666A6.0642 6.0642 0 0 0 16.7458416320429 25.1082L18.0166416320429 23.7564L19.3198416320429 25.1064A6.0642 6.0642 0 0 0 23.6524416320429 27.0666zM23.6542416320429 28.8A7.7886 7.7886 0 0 1 18.0184416320429 26.2872A7.7886 7.7886 0 0 1 12.3646416320429 28.8A6.6924 6.6924 0 0 1 7.5622416320429 26.8074A7.5726 7.5726 0 0 1 7.5622416320429 16.1982L18.0004416320429 5.4L28.4386416320429 16.2A7.5726 7.5726 0 0 1 28.4386416320429 26.8074A6.6924 6.6924 0 0 1 23.6542416320429 28.8z" />
    <glyph glyph-name="icon-lock"
      unicode="&#xEA0B;"
      horiz-adv-x="22.5" d="M11.25 34.2C14.97825 34.2 18 30.9735 18 26.9955V22.19175H22.5V2.979H0V22.194H4.5V26.99325L4.51125 27.40275C4.70925 31.194 7.65 34.2 11.25 34.2zM11.25 31.79925C8.76375 31.79925 6.75 29.64825 6.75 26.9955V22.19175H15.75V26.9955C15.75 29.64825 13.73625 31.79925 11.25 31.79925zM11.25 13.78575L11.25 9.0405M11.25 17.388H11.25A2.25 2.25 0 0 0 13.5 15.138V14.83425A2.25 2.25 0 0 0 11.25 12.58425H11.25A2.25 2.25 0 0 0 9 14.83425V15.138A2.25 2.25 0 0 0 11.25 17.388z" />
    <glyph glyph-name="icon-lock-mob"
      unicode="&#xEA0C;"
      horiz-adv-x="26.74285714285714" d="M13.3714285714286 35.1771428571429C17.8025142857143 35.1771428571429 21.3942857142857 31.5853714285714 21.3942857142857 27.1542857142857V21.8067428571429L26.7428571428571 21.8057142857143V0.4114285714286H0V21.8057142857143L5.3485714285714 21.8067428571429V27.1542857142857L5.3526857142857 27.4093714285714C5.4864 31.7211428571429 9.0257142857143 35.1771428571429 13.3714285714286 35.1771428571429zM24.0685714285714 19.1314285714286H2.6742857142857V3.0857142857143H24.0685714285714V19.1314285714286zM13.3714285714286 32.5028571428571C10.4173714285714 32.5028571428571 8.0228571428571 30.1083428571429 8.0228571428571 27.1542857142857V21.8057142857143H18.72V27.1542857142857C18.72 30.1083428571429 16.3254857142857 32.5028571428571 13.3714285714286 32.5028571428571zM13.3714285714286 12.4457142857143L13.3714285714286 7.3645714285714M11.232 13.248A2.1394285714286 2.1394285714286 0 0 1 15.5108571428571 13.248A2.1394285714286 2.1394285714286 0 0 1 11.232 13.248" />
    <glyph glyph-name="lock-dark"
      unicode="&#xEA0D;"
      horiz-adv-x="27" d="M13.5 34.443C17.60175 34.443 20.925 31.0005 20.925 26.75475V21.62925H25.875V1.125H1.125V21.62925H6.075V26.75475L6.08625 27.1755C6.29775 31.2255 9.5355 34.443 13.5 34.443zM13.5 31.878C10.76625 31.878 8.55 29.58525 8.55 26.75475V21.62925H18.45V26.75475C18.45 29.58525 16.23375 31.88025 13.5 31.88025zM13.5 12.6585L13.5 7.59375M13.5 16.50375H13.5A2.475 2.475 0 0 0 15.975 14.02875V13.85325A2.475 2.475 0 0 0 13.5 11.37825H13.5A2.475 2.475 0 0 0 11.025 13.85325V14.02875A2.475 2.475 0 0 0 13.5 16.50375z" />
    <glyph glyph-name="lock-grey"
      unicode="&#xEA0E;"
      horiz-adv-x="27" d="M13.5 34.443C17.60175 34.443 20.925 31.0005 20.925 26.75475V21.62925H25.875V1.125H1.125V21.62925H6.075V26.75475L6.08625 27.1755C6.29775 31.2255 9.5355 34.443 13.5 34.443zM13.5 31.878C10.76625 31.878 8.55 29.58525 8.55 26.75475V21.62925H18.45V26.75475C18.45 29.58525 16.23375 31.88025 13.5 31.88025zM13.5 12.6585L13.5 7.59375M13.5 16.50375H13.5A2.475 2.475 0 0 0 15.975 14.02875V13.85325A2.475 2.475 0 0 0 13.5 11.37825H13.5A2.475 2.475 0 0 0 11.025 13.85325V14.02875A2.475 2.475 0 0 0 13.5 16.50375z" />
    <glyph glyph-name="logo"
      unicode="&#xEA0F;"
      horiz-adv-x="188" d="M85.18 0C95.126 0 103.217 8.075 103.217 18S95.126 36 85.18 36C75.233 36 67.14 27.925 67.14 18S75.232 0 85.179 0zM85.18 33.5C93.744 33.5 100.712 26.547 100.712 18S93.744 2.5 85.18 2.5C76.614 2.5 69.647 9.453 69.647 18S76.614 33.5 85.18 33.5zM73.605 17.484H73.155V11.984H78.735C78.232 12.366 77.939 12.963 77.945 13.594C77.944 14.21 78.193 14.8 78.634 15.231C79.075 15.662 79.672 15.897 80.289 15.884C80.918 15.93 81.537 15.706 81.99 15.269C82.443 14.832 82.689 14.223 82.664 13.594C82.696 12.85 82.21 12.184 81.492 11.984C82.268 11.609 82.762 10.824 82.764 9.964C82.764 8.604 81.822 7.874 79.818 7.874H79.167V5.984H82.664C83.987 5.984 84.708 6.254 85.179 7.364C85.69 6.254 86.372 5.984 87.695 5.984H91.192V7.834H90.541C88.597 7.834 87.595 8.564 87.595 9.924C87.581 10.799 88.078 11.603 88.867 11.984C88.149 12.184 87.663 12.85 87.695 13.594C87.67 14.223 87.915 14.832 88.369 15.269C88.822 15.706 89.441 15.929 90.069 15.884C90.687 15.897 91.284 15.662 91.725 15.231C92.166 14.801 92.415 14.21 92.415 13.594C92.42 12.963 92.127 12.366 91.623 11.984H97.205V17.484H96.754C95.796 17.484 94.85 17.039 94.499 16.124C93.988 17.254 93.256 17.484 91.984 17.484H87.694C86.372 17.484 85.65 17.234 85.179 16.124C84.709 17.234 83.987 17.484 82.664 17.484H78.375C77.102 17.484 76.351 17.254 75.87 16.124C75.518 17.043 74.594 17.484 73.605 17.484zM51.197 24L55.124 18.458L59.073 24H63.133L56.771 15.881V11H53.445V15.881L47.1 24H51.198zM177.157 24V18.99H184.82V24H188V11H184.82V16.58H177.157V11H173.97V24H177.157zM126.27 24V16.593C126.308 15.631 126.41 14.828 127.23 14.223C128.039 13.623 129.15 13.553 129.644 13.546H129.85C130.073 13.546 131.27 13.546 132.111 14.043C132.675 14.368 132.951 14.811 133.072 15.043C133.208 15.329 133.242 15.545 133.275 16.146V24H136.287V16.682C136.271 15.506 136.271 14.527 135.672 13.512C135.57 13.351 135.329 12.976 134.952 12.62C133.65 11.41 131.495 11 129.832 11C129.442 11 128.516 11.017 127.472 11.251C125.056 11.801 124.029 13.101 123.599 14.136C123.343 14.758 123.276 15.329 123.259 16.699V24H126.27zM116.378 24C117.324 23.983 118.337 23.965 119.193 23.504C119.779 23.171 120.616 22.455 120.616 20.817C120.616 20.246 120.508 18.955 119.104 18.274C118.979 18.22 118.821 18.144 118.534 18.052C119.104 17.906 119.315 17.834 119.602 17.686C121.167 16.876 121.255 15.346 121.255 14.738C121.255 14.241 121.221 12.73 119.993 11.772C119.048 11.018 117.965 11 116.861 11H108.228V24H116.378zM41.491 24C42.674 23.983 43.199 23.93 43.762 23.765C45.527 23.268 46.495 21.827 46.495 20.116C46.495 19.786 46.477 19.14 46.128 18.406C45.507 17.076 44.326 16.671 42.926 16.433L47.1 11H43.044L39.399 16.231H35.484V11H32.069V24zM163.543 24C164.283 24 166.857 23.933 168.94 22.671C170.076 21.961 170.697 21.115 170.945 20.717C171.04 20.542 171.137 20.371 171.21 20.196L167.557 19.783C167.349 20.075 166.972 20.612 166.215 21.079C165.775 21.338 164.869 21.754 163.543 21.754C163.203 21.754 162.352 21.736 161.462 21.39C159.719 20.733 158.792 19.213 158.792 17.5C158.792 16.654 159.075 15.72 159.626 15.012C159.741 14.857 160.025 14.545 160.457 14.232C160.97 13.854 161.993 13.249 163.637 13.249C165.589 13.249 166.627 13.992 167.159 14.562C167.387 14.786 167.538 15.012 167.841 15.53L171.361 15.566C171.174 14.942 171.059 14.716 170.889 14.408C170.679 14.028 170.321 13.471 169.506 12.816C168.408 11.934 166.649 11 163.353 11C162.596 11 159.949 11.017 157.866 12.435C155.44 14.077 155.327 16.635 155.327 17.535C155.327 18.779 155.65 20.075 156.407 21.115C156.673 21.479 156.918 21.735 157.257 22.032C157.715 22.429 157.94 22.566 158.207 22.721C159.075 23.258 160.875 24 163.543 24zM148.719 24C149.905 23.983 150.428 23.928 150.989 23.764C152.753 23.267 153.726 21.825 153.726 20.117C153.726 19.783 153.707 19.137 153.355 18.403C152.735 17.075 151.555 16.672 150.155 16.433L154.325 11H150.273L146.625 16.229H142.709V11H139.293V24H148.719zM12.827 24V21.616H8.048V11H4.798V21.616H0V24H12.827zM21.547 23.99C23.175 24.058 25.137 23.798 26.602 23.125C26.805 23.021 27.178 22.85 27.639 22.535C28.009 22.275 28.379 21.965 28.676 21.619C29.232 21.013 30.063 19.667 30.063 17.624C30.063 17.38 30.046 16.742 29.918 16.065C29.731 15.255 29.232 13.488 27.253 12.245C26.341 11.691 24.676 11 22.086 11C18.192 11 16.143 12.47 15.196 13.768C14.75 14.355 14.03 15.633 14.03 17.501C14.03 20.322 15.492 21.792 16.455 22.485C17.88 23.503 19.789 23.937 21.546 23.989zM22.153 21.796L21.899 21.792C21.602 21.792 20.824 21.723 20.011 21.392C17.584 20.392 17.398 18.228 17.398 17.414C17.398 17.175 17.418 16.377 17.752 15.651C17.843 15.425 17.955 15.203 18.252 14.821C18.342 14.716 18.584 14.388 18.916 14.129C19.436 13.714 20.435 13.197 22.047 13.197C22.345 13.197 23.122 13.212 23.937 13.488C26.509 14.355 26.733 16.722 26.733 17.485C26.733 18.002 26.641 19.338 25.563 20.459C24.641 21.393 23.25 21.844 21.899 21.792zM116.451 16.636L111.342 16.617V13.283H116.077C116.434 13.283 116.808 13.283 117.162 13.411C117.592 13.557 118.126 13.983 118.126 15.051C118.126 15.199 118.092 15.789 117.751 16.192C117.395 16.6 116.95 16.617 116.451 16.635zM82.664 30H79.167V28.11H79.818C81.822 28.11 82.764 27.38 82.764 26.02C82.762 25.16 82.268 24.375 81.492 24C82.21 23.8 82.696 23.133 82.664 22.39C82.689 21.761 82.444 21.152 81.99 20.715C81.537 20.278 80.918 20.054 80.29 20.1C79.672 20.087 79.075 20.322 78.634 20.753C78.193 21.183 77.944 21.773 77.944 22.39C77.939 23.021 78.232 23.618 78.736 24H73.154V18.5H73.605C74.599 18.5 75.518 18.941 75.87 19.86C76.35 18.73 77.102 18.5 78.375 18.5H82.665C83.987 18.5 84.708 18.75 85.179 19.86C85.65 18.75 86.372 18.5 87.695 18.5H91.984C93.256 18.5 93.988 18.73 94.499 19.86C94.85 18.945 95.769 18.5 96.754 18.5H97.204V24H91.623C92.127 23.618 92.42 23.021 92.415 22.39C92.415 21.774 92.166 21.184 91.725 20.753C91.284 20.322 90.687 20.087 90.07 20.1C89.44 20.054 88.822 20.278 88.369 20.715C87.915 21.152 87.67 21.761 87.695 22.39C87.663 23.133 88.149 23.8 88.867 24C88.077 24.381 87.581 25.185 87.595 26.06C87.595 27.42 88.597 28.15 90.541 28.15H91.192V30H87.695C86.372 30 85.69 29.73 85.179 28.62C84.71 29.73 83.987 30 82.664 30zM40.873 21.72H35.483V18.532H41.036C41.194 18.534 41.588 18.543 41.821 18.588C42.231 18.698 43.025 19.009 43.025 20.078C43.025 20.208 43.003 20.685 42.753 21.056C42.326 21.682 41.568 21.699 40.873 21.72zM148.098 21.719H142.709V18.532H148.265C148.424 18.534 148.82 18.542 149.052 18.586C149.455 18.696 150.252 19.011 150.252 20.077C150.252 20.207 150.234 20.686 149.982 21.054C149.554 21.679 148.799 21.698 148.098 21.719zM116.095 21.754H111.342V18.9H115.845C116.451 18.9 117.058 18.9 117.395 19.524C117.57 19.821 117.59 20.142 117.592 20.3V20.351C117.592 20.465 117.592 20.72 117.485 20.997C117.183 21.824 116.292 21.753 116.095 21.753z" />
    <glyph glyph-name="logo-small"
      unicode="&#xEA10;"
      horiz-adv-x="36" d="M18.0003793 0C27.9253577 0 36 8.0749365 36 18.0001897C36 27.9254428 27.9253577 36 18.0003793 36C8.07464228 36 0 27.9254428 0 18.0001897C0 8.0749365 8.07464228 0 18.0003793 0zM2.5 18.0001881C2.5 26.54661999 9.45308822 33.5 18.0003762 33.5C26.5469118 33.5 33.5 26.54661999 33.5 18.0001881C33.5 9.45338 26.5469118 2.5 18.0003762 2.5C9.45308822 2.5 2.5 9.45338 2.5 18.0001881zM18 16.14C17.53 17.25 16.81 17.5 15.49 17.5L11.21 17.5C9.94 17.5 9.19 17.27 8.71 16.14C8.35879294 17.0588914 7.43734741 17.5 6.45 17.5L6 17.5L6 12L11.57 12C11.0673287 12.3819092 10.774479 12.9787294 10.78 13.61C10.7798531 14.2261089 11.0279717 14.8162868 11.4683056 15.2472118C11.9086394 15.6781368 12.5040379 15.9134522 13.12 15.9C13.7474924 15.9460271 14.3648559 15.7224148 14.817323 15.2852208C15.2697902 14.8480268 15.5144615 14.2387025 15.49 13.61C15.5218373 12.8665577 15.0369371 12.1993018 14.32 12C15.0948995 11.6250574 15.5879465 10.8408408 15.59 9.98C15.59 8.62 14.65 7.89 12.65 7.89C12.42 7.89 12.28 7.89 12 7.89L12 6L15.49 6C16.81 6 17.53 6.27 18 7.38C18.51 6.27 19.19 6 20.51 6L24 6L24 7.85C23.72 7.85 23.58 7.85 23.35 7.85C21.41 7.85 20.41 8.58 20.41 9.94C20.3965749 10.8152491 20.8919917 11.6188385 21.68 12C20.9630629 12.1993018 20.4781627 12.8665577 20.51 13.61C20.4855385 14.2387025 20.7302098 14.8480268 21.182677 15.2852208C21.6351441 15.7224148 22.2525076 15.9460271 22.88 15.9C23.4959621 15.9134522 24.0913606 15.6781368 24.5316944 15.2472118C24.9720283 14.8162868 25.2201469 14.2261089 25.22 13.61C25.225521 12.9787294 24.9326713 12.3819092 24.43 12L30 12L30 17.5L29.55 17.5C28.5940552 17.5 27.6502891 17.0549068 27.3 16.14C26.79 17.27 26.06 17.5 24.79 17.5L20.51 17.5C19.19 17.5 18.47 17.25 18 16.14zM18 19.86C18.47 18.75 19.19 18.5 20.51 18.5L24.79 18.5C26.06 18.5 26.79 18.73 27.3 19.86C27.6502891 18.9450932 28.5663452 18.5 29.55 18.5L30 18.5L30 24L24.43 24C24.9326713 23.6180908 25.225521 23.0212706 25.22 22.39C25.2201469 21.7738911 24.9720283 21.1837132 24.5316944 20.7527882C24.0913606 20.3218632 23.4959621 20.0865478 22.88 20.1C22.2525076 20.0539729 21.6351441 20.2775852 21.182677 20.7147792C20.7302098 21.1519732 20.4855385 21.7612975 20.51 22.39C20.4781627 23.1334423 20.9630629 23.8006982 21.68 24C20.8919917 24.3811615 20.3965749 25.1847509 20.41 26.06C20.41 27.42 21.41 28.15 23.35 28.15L24 28.15L24 30L20.51 30C19.19 30 18.51 29.73 18 28.62C17.53 29.73 16.81 30 15.49 30L12 30L12 28.11L12.65 28.11C14.65 28.11 15.59 27.38 15.59 26.02C15.5879465 25.1591592 15.0948995 24.3749426 14.32 24C15.0369371 23.8006982 15.5218373 23.1334423 15.49 22.39C15.5144615 21.7612975 15.2697902 21.1519732 14.817323 20.7147792C14.3648559 20.2775852 13.7474924 20.0539729 13.12 20.1C12.5040379 20.0865478 11.9086394 20.3218632 11.4683056 20.7527882C11.0279717 21.1837132 10.7798531 21.7738911 10.78 22.39C10.774479 23.0212706 11.0673287 23.6180908 11.57 24L6 24L6 18.5L6.45 18.5C7.44140625 18.5 8.35879294 18.9411086 8.71 19.86C9.19 18.73 9.94 18.5 11.21 18.5L15.49 18.5C16.81 18.5 17.53 18.75 18 19.86z" />
    <glyph glyph-name="search"
      unicode="&#xEA11;"
      horiz-adv-x="36" d="M23.4330196732637 12.9096A9.6894 9.6894 0 1 1 22.1910196732637 11.6676L28.4586196732637 5.4L29.7006196732637 6.642L23.4330196732637 12.9096zM21.6330196732637 13.5036A7.9416 7.9416 0 1 0 21.6330196732637 24.723A7.9416 7.9416 0 0 0 21.5970196732637 13.5036H21.6330196732637z" />
    <glyph glyph-name="user"
      unicode="&#xEA12;"
      horiz-adv-x="36" d="M27.0001681786442 5.4C27.0001681786442 11.358 22.9681681786442 16.2 18.0001681786442 16.2S9.0001681786442 11.358 9.0001681786442 5.4H7.2001681786442A12.6 12.6 0 0 0 14.2741681786442 17.226A7.2 7.2 0 1 0 21.7081681786442 17.226A12.6 12.6 0 0 0 28.8001681786442 5.4H27.0001681786442zM18.0001681786442 18A5.4 5.4 0 1 1 18.0001681786442 28.8A5.4 5.4 0 0 1 18.0001681786442 18z" />
  </font>
</defs>
</svg>
