{
    "name": "Breadrumbs",
    "group": "commerce_layouts",
    "attribute_definition_groups": [
      {
        "id": "body",
        "attribute_definitions": [
            {
                "id": "firstLevel",
                "name": "First Level",
                "type": "boolean",
                "required": false,
                "description": "if set 'true', name will not append to 'Home'",
                "default_value": false
            },
            {
                "id": "name",
                "name": "Name",
                "type": "string",
                "required": true
            }
        ]
      }
    ],
    "region_definitions": []
  }
