<svg xmlns="http://www.w3.org/2000/svg" width="40" height="40" viewBox="0 0 40 40">
    <g fill="none">
        <path fill="#DDD" d="M27.235 0H2.372c-.086.001-.172.002-.258.005-.188.005-.378.017-.563.051-.188.036-.364.094-.535.184C.848.33.694.446.561.586c-.134.14-.245.3-.33.475-.088.179-.143.362-.177.559-.033.193-.045.391-.05.587L0 2.477V17.516l.004.27c.005.195.017.393.05.587.034.197.089.38.176.558.086.176.197.337.33.476.134.14.288.256.456.345.171.091.347.149.535.184.185.035.375.047.563.052l.258.004h25.169c.086 0 .172-.002.259-.004.187-.005.377-.017.562-.052.189-.035.364-.093.535-.184.168-.089.322-.206.455-.345.134-.14.245-.3.331-.476.087-.178.143-.361.176-.558.034-.194.045-.392.05-.587l.004-.27V2.797v-.32c0-.09-.002-.18-.004-.27-.005-.196-.016-.394-.05-.587-.033-.197-.089-.38-.176-.559-.086-.175-.197-.336-.33-.475-.134-.14-.288-.256-.456-.346-.171-.09-.346-.148-.535-.184-.185-.034-.375-.046-.562-.051C27.713.002 27.627 0 27.54 0L27.235 0z" transform="translate(5 10)"/>
        <path fill="#FFF" d="M27.235.666l.302.001c.081 0 .163.002.246.004.143.004.31.012.466.041.136.026.25.065.359.123.108.057.206.132.293.222.086.09.158.193.214.307.055.113.092.232.116.374.028.161.036.337.04.487.002.085.003.17.003.257l.001.315v14.717l-.004.255c-.004.15-.012.325-.04.488-.024.14-.061.26-.117.373-.055.113-.127.216-.213.306-.087.091-.185.166-.294.223-.109.058-.222.097-.356.122-.16.03-.334.038-.466.042-.082.002-.164.003-.249.003l-.301.001H2.375l-.244-.004c-.135-.004-.31-.012-.467-.042-.136-.025-.25-.064-.359-.122-.108-.058-.206-.132-.293-.223-.086-.09-.158-.192-.213-.306-.055-.114-.093-.232-.117-.375-.028-.162-.036-.337-.04-.486-.002-.085-.003-.17-.003-.256V2.481c0-.086.001-.17.003-.256.004-.15.012-.324.04-.488.025-.141.062-.26.117-.374.055-.113.127-.216.213-.306.087-.09.185-.165.294-.223.109-.057.222-.096.358-.122.156-.029.324-.037.467-.041l.245-.004h24.859" transform="translate(5 10)"/>
        <g fill="#000">
            <path d="M4.19 1.253c.256-.335.43-.784.384-1.243C4.2.03 3.742.27 3.477.603c-.238.287-.448.755-.393 1.195.42.038.84-.22 1.106-.545M4.57 1.883c-.612-.038-1.131.363-1.423.363-.292 0-.74-.343-1.223-.334-.629.01-1.213.381-1.532.972C-.265 4.066.219 5.819.857 6.78c.31.476.684 1 1.177.982.465-.02.647-.315 1.213-.315.565 0 .73.315 1.222.305.511-.01.83-.476 1.14-.953.356-.543.502-1.067.511-1.096-.009-.01-.985-.4-.994-1.572-.01-.981.766-1.448.803-1.477-.438-.676-1.122-.752-1.36-.772" transform="translate(5 10) translate(3.976 5.472)"/>
            <g>
                <path d="M2.663.178c1.328 0 2.253.956 2.253 2.348 0 1.397-.944 2.358-2.287 2.358H1.16v2.442H.096V.178h2.567zM1.159 3.953h1.219c.925 0 1.452-.52 1.452-1.422 0-.901-.527-1.417-1.447-1.417H1.159v2.839zM5.194 5.845c0-.912.669-1.471 1.855-1.54l1.367-.085V3.82c0-.58-.375-.926-1.001-.926-.594 0-.964.297-1.054.763h-.968c.057-.942.826-1.635 2.06-1.635 1.21 0 1.983.669 1.983 1.714v3.591h-.982V6.47H8.43c-.29.58-.92.946-1.575.946-.978 0-1.661-.634-1.661-1.57zm3.222-.47v-.412l-1.23.08c-.611.044-.958.326-.958.772 0 .456.36.753.911.753.717 0 1.277-.515 1.277-1.194zM10.363 9.243v-.867c.076.02.247.02.332.02.474 0 .73-.208.887-.743 0-.01.09-.317.09-.322L9.87 2.115h1.11l1.263 4.24h.019l1.262-4.24h1.082l-1.87 5.484c-.427 1.263-.92 1.669-1.955 1.669-.085 0-.341-.01-.417-.025z" transform="translate(5 10) translate(3.976 5.472) translate(7.229 .377)"/>
            </g>
        </g>
    </g>
</svg>
