{
    "step-types": {
        "script-module-step": [
            {
                "@type-id": "custom.CreateAssignImageXml",
                "module": "app_toryburch_core/cartridge/scripts/jobsteps/AssignImageXml.js",
                "description": "Creates catalog file XML with assigning images to product",
                "function": "Run",
                "transactional":"true",
                "parameters": {
                    "parameters": [
                        {
                            "@name": "TargetFolder",
                            "@type": "string",
                            "@required": "true",
                            "@trim": "true",
                            "description": "Target folder path (in IMPEX) to save catalog import files",
                            "default-value": "IMPEX/src/import/images"
                        },
                        {
                            "@name": "CatalogId",
                            "@type": "string",
                            "@required": "true",
                            "@trim": "true",
                            "description": "Catalog ID for import"
                        },
                        {
                            "@name": "IsDisabled",
                            "description": "Mark the step as disabled. This will skip the step and returns a OK status",
                            "@type": "boolean",
                            "@required": false,
                            "@trim": true
                        }
                    ]
                },
                "status-codes": {
                    "status": [{
                            "@code": "ERROR",
                            "description": "Used when an error occurred."
                        },
                        {
                            "@code": "OK",
                            "description": "Used when everything went well."
                        }
                    ]
                }
            },
            {
                "@type-id": "custom.UpdateProducts",
                "module": "app_toryburch_core/cartridge/scripts/jobsteps/UpdateProducts.js",
                "description": "Creates catalog file XML with update id and variants to product",
                "function": "Run",
                "parameters": {
                    "parameters": [
                        {
                            "@name": "TargetCatalogRead",
                            "@type": "string",
                            "@required": "true",
                            "@trim": "true",
                            "description": "Target folder path (in IMPEX) to open catalog file",
                            "default-value": ""
                        },
                        {
                            "@name": "TargetCatalogSave",
                            "@type": "string",
                            "@required": "true",
                            "@trim": "true",
                            "description": "Target folder path (in IMPEX) to save new catalog file",
                            "default-value": ""
                        },
                        {
                            "@name": "CatalogId",
                            "@type": "string",
                            "@required": "true",
                            "@trim": "true",
                            "description": "Catalog ID for import"
                        },
                        {
                            "@name": "IsDisabled",
                            "description": "Mark the step as disabled. This will skip the step and returns a OK status",
                            "@type": "boolean",
                            "@required": false,
                            "@trim": true
                        }
                    ]
                },
                "status-codes": {
                    "status": [{
                            "@code": "ERROR",
                            "description": "Used when an error occurred."
                        },
                        {
                            "@code": "OK",
                            "description": "Used when everything went well."
                        }
                    ]
                }
            }
        ]
    }
}
