{
    "name": "Main Banner Custom",
    "group": "commerce_assets",
    "attribute_definition_groups": [
      {
        "id": "body",
        "attribute_definitions": [
          {
            "id": "image",
            "name": "Main image",
            "type": "image",
            "required": false
          },{
            "id": "classes1",
            "name": "Custom Classes for general component",
            "type": "string",
            "required": false
        },
          {
            "id": "descriptionBelow",
            "name": "Description below image",
            "type": "boolean",
            "required": false
          },
          {
            "id": "descriptionSmall",
            "name": "Small text for description",
            "type": "boolean",
            "required": false
          },
          {
            "id": "fullWidth",
            "name": "Full Width",
            "type": "boolean",
            "required": false
          },
          {
            "id": "alt",
            "name": "Alt Text",
            "description": "Alt text for background image",
            "type": "string",
            "required": false
          },
          {
            "id": "title",
            "name": "Main title for banner",
            "type": "string",
            "required": false
          },
          {
            "id": "buttonText1",
            "name": "Button type 1",
            "type": "string",
            "required": false
          },
          {
            "id": "buttonLink1",
            "name": "Button URL for type 1",
            "type": "url",
            "required": false
          },
          {
            "id": "buttonText2",
            "name": "Button type 2",
            "type": "string",
            "required": false
          },
          {
            "id": "buttonLink2",
            "name": "Button URL for type 2",
            "type": "url",
            "required": false
          }
        ]
      }
    ],
    "region_definitions": []
}
