{
    "name": "Page Header Custom",
    "group": "commerce_assets",
    "attribute_definition_groups": [
      {
        "id": "body",
        "attribute_definitions": [
          {
            "id": "pageTitle",
            "name": "Page title",
            "type": "string",
            "required": false
          },
          {
            "id": "pageSubtitle",
            "name": "Page description",
            "type": "string",
            "required": false
          }
        ]
      }
    ],
    "region_definitions": []
}
