{
    "name": "Slider Banner",
    "description": "This is banner slider component.",
    "group": "commerce_assets",
    "attribute_definition_groups": [
        {
            "id": "imageConfiguration",
            "name": "Background Image Configuration",
            "description": "Select the image to be displayed in the background.",
            "attribute_definitions": [
                {
                    "id": "image",
                    "name": "Image",
                    "description": "Select an image to be displayed on the background",
                    "type": "image",
                    "required": true
                },
                {
                    "id": "imageMobile",
                    "name": "Image (Mobile)",
                    "type": "image",
                    "required": false
                },
                {
                  "id": "alt",
                  "name": "Alt Text",
                  "description": "The image alt text shown by the component.",
                  "type": "string",
                  "required": false
                }
            ]
        },
        {
            "id": "ctaConfiguration",
            "name": "CTA Content",
            "description": "Set content of the \"Call to Action\" area that will be displayed on the background image.",
            "attribute_definitions": [
                {
                    "id": "preheader",
                    "name": "Preheader",
                    "description": "Enter the preheader to be displayed on the image",
                    "type": "string",
                    "required": false
                },
                {
                    "id": "header",
                    "name": "Header",
                    "description": "Enter the header to be displayed on the image",
                    "type": "string",
                    "required": false
                },
                {
                    "id": "description",
                    "name": "Description",
                    "description": "Enter the description to be displayed on the image",
                    "type": "string",
                    "required": false
                },
                {
                    "id": "buttonName",
                    "name": "Button Text",
                    "description": "Enter a text to be displayed on the call to action button",
                    "type": "string",
                    "required": false
                },
                {
                    "id": "link",
                    "name": "Link",
                    "description": "Select a call to action url",
                    "type": "url",
                    "required": false
                }
            ]
        },
        {
            "id": "ctaStyles",
            "name": "CTA Styles",
            "description": "Set styling of the \"Call to Action\" area that will be displayed on the background image.",
            "attribute_definitions": [
                {
                    "id": "position",
                    "name": "Position",
                    "description": "Position of the CTA on the background image. Default value is \"right\".",
                    "type": "enum",
                    "values": [
                        "left",
                        "center",
                        "right"
                    ],
                    "default_value": "right",
                    "required": false
                },
                {
                    "id": "textAlignment",
                    "name": "Text Alignment",
                    "description": "Alignment of the CTA text. Default value is \"left\".",
                    "type": "enum",
                    "values": [
                        "left",
                        "center",
                        "right"
                    ],
                    "default_value": "left",
                    "required": false
                },
                {
                    "id": "bgColor",
                    "name": "Background Color",
                    "description": "Enter a hex color for the background color of banner content. Default value is \"white\".",
                    "type": "string",
                    "default_value": "white",
                    "required": false
                },
                {
                    "id": "preheaderTextColor",
                    "name": "Preheader Text Color",
                    "description": "Enter a hex color for preheader text. Default value is \"black\".",
                    "type": "string",
                    "default_value": "black",
                    "required": false
                },
                {
                    "id": "headerTextColor",
                    "name": "Header Text Color",
                    "description": "Enter a hex color for header text. Default value is \"black\".",
                    "type": "string",
                    "default_value": "black",
                    "required": false
                },
                {
                    "id": "descriptionTextColor",
                    "name": "Description Text Color",
                    "description": "Enter a hex color for description text. Default value is \"#999\".",
                    "type": "string",
                    "default_value": "#999",
                    "required": false
                },
                {
                    "id": "buttonType",
                    "name": "Button Type",
                    "description": "Type of the call to action button. Type changes the apperance of button. Default value is \"primary\".",
                    "type": "enum",
                    "values": [
                        "primary",
                        "secondary",
                        "danger",
                        "success",
                        "warning",
                        "info",
                        "light",
                        "dark",
                        "link-black",
                        "link-white",
                        "outline-primary",
                        "outline-secondary",
                        "outline-danger",
                        "outline-success",
                        "outline-warning",
                        "outline-info",
                        "outline-light",
                        "outline-dark"
                    ],
                    "default_value": "primary",
                    "required": false
                }
            ]
        }
    ],
    "region_definitions": []
}
