{
    "hooks": [
        {
            "name": "dw.ocapi.shop.order.beforePATCH",
            "script": "~/cartridge/scripts/hooks/order/patch.js"
        },
        {
            "name": "speedbus.order.export",
            "script": "~/cartridge/scripts/hooks/speedbus/export.js"
        },
        {
            "name": "speedbus.order.sale",
            "script": "~/cartridge/scripts/hooks/speedbus/sale.js"
        },
        {
            "name": "speedbus.order.cancel",
            "script": "~/cartridge/scripts/hooks/speedbus/cancel.js"
        },
        {
            "name": "speedbus.order.complete",
            "script": "~/cartridge/scripts/hooks/speedbus/complete.js"
        },
        {
            "name": "speedbus.order.return",
            "script": "~/cartridge/scripts/hooks/speedbus/return.js"
        }
    ]
}
