{
    "name": "Brand Content",
    "description": "This is brand content of the brand page (about-us page).",
    "group": "commerce_assets",
    "attribute_definition_groups": [
        {
            "id": "brandConfiguration",
            "name": "Brand Configuration",
            "description": "Configure brand infos to be displayed on the page.",
            "attribute_definitions": [
                {
                    "id": "image",
                    "name": "Image",
                    "description": "Select an image to be displayed on the page",
                    "type": "image",
                    "required": false
                },
                {
                    "id": "alt",
                    "name": "Alt Text",
                    "description": "Enter an alt text for selected image which is displayed on the page",
                    "type": "string",
                    "required": false
                },
                {
                    "id": "title",
                    "name": "Title",
                    "description": "The info's title shown by the component.",
                    "type": "string",
                    "required": false
                },
                {
                    "id": "description",
                    "name": "Description",
                    "description": "The info's description shown by the component.",
                    "type": "string",
                    "required": false
                },
                {
                    "id": "buttonDisplayName",
                    "name": "Button Display Name",
                    "description": "The display name is on the button shown by the component.",
                    "type": "string",
                    "required": false
                },
                {
                    "id": "link",
                    "name": "Link",
                    "description": "Link to display when click the button.",
                    "type": "url",
                    "required": false
                }
            ]
        }
    ],
    "region_definitions": []
}
