{
    "name": "Category Tile",
    "description": "This is category tile for trending static on the homepage.",
    "group": "commerce_assets",
    "attribute_definition_groups": [
        {
            "id": "categoryTileConfiguration",
            "name": "Category Tile Configuration",
            "description": "Select the image and enter a title and link to be displayed in the background.",
            "attribute_definitions": [
                {
                    "id": "image",
                    "name": "Image",
                    "description": "Select an image to be displayed on the top",
                    "type": "image",
                    "required": true
                },
                {
                    "id": "imageAlt",
                    "name": "Image Alt Text",
                    "description": "Enter alt text of image",
                    "type": "string",
                    "required": false
                },
                {
                    "id": "title",
                    "name": "Title",
                    "description": "Enter a title to be displayed on the tile",
                    "type": "string",
                    "required": false
                },
                {
                    "id": "category",
                    "name": "Category",
                    "description": "Showing page category link, when to click on the tile",
                    "type": "category",
                    "required": false
                },
                {
                    "id": "link",
                    "name": "Link",
                    "description": "Showing page alternative link if do not display selected category",
                    "type": "string",
                    "required": false
                },
                {
                    "id": "linkDisplay",
                    "name": "Link Display",
                    "description": "Enter a link to be displayed on the tile",
                    "type": "string",
                    "required": false
                }
            ]
        }
    ],
    "region_definitions": []
}
