{
    "name": "Category Tile",
    "description": "This is category tile component.",
    "group": "commerce_assets",
    "attribute_definition_groups": [
        {
            "id": "categoryTileConfiguration",
            "name": "Category Tile Configuration",
            "description": "Select category count from 1 to 4 to be displayed and enter configuration",
            "attribute_definitions": [
                {
                    "id": "category",
                    "name": "Category",
                    "description": "Select Category to be displayed.",
                    "type": "category",
                    "required": true
                },
                {
                    "id": "header",
                    "name": "Header",
                    "description": "Enter the header to be displayed below the image",
                    "type": "string",
                    "required": false
                },
                {
                    "id": "description",
                    "name": "Description",
                    "description": "Enter the description to be displayed below the image",
                    "type": "string",
                    "required": false
                },
                {
                    "id": "alt",
                    "name": "Alt Text",
                    "description": "Enter the alt text for image",
                    "type": "string",
                    "required": false
                },
                {
                    "id": "title",
                    "name": "Title Text",
                    "description": "Enter the title text for image",
                    "type": "string",
                    "required": false
                },
                {
                   "id": "image",
                   "name": "Image",
                   "description": "Image for category",
                   "type": "image",
                   "required": false
                },
                {
                    "id": "buttonName",
                    "name": "Button Text",
                    "description": "Enter a text to be displayed on the call to action button",
                    "type": "string",
                    "required": false
                },
                {
                   "id": "link",
                   "name": "Link",
                   "description": "Link to be displayed on component",
                   "type": "string",
                   "required": false
                },
                {
                    "id": "frame",
                    "name": "Frame",
                    "type": "enum",
                    "values": ["none", "border", "frame"],
                    "required": false
                }
            ]
        }
    ],
    "region_definitions": []
}
