{
    "name": "Slider HalfRow",
    "description": "This is half row slider component.",
    "group": "commerce_assets",
    "attribute_definition_groups": [
        {
            "id": "imageConfiguration",
            "name": "Image Configuration",
            "description": "Select the image to be displayed in the component.",
            "attribute_definitions": [
                {
                    "id": "image",
                    "name": "Image",
                    "description": "Select an image to be displayed on the component",
                    "type": "image",
                    "required": true
                },
                {
                  "id": "alt",
                  "name": "Alt Text",
                  "description": "The image alt text.",
                  "type": "string",
                  "required": false
                }
            ]
        },
        {
            "id": "bodyConfiguration",
            "name": "Media Body Configuration",
            "description": "Configure body of attributes to be displayed by the image.",
            "attribute_definitions": [
                {
                    "id": "header",
                    "name": "Header",
                    "description": "Enter the header to be displayed on the component",
                    "type": "string",
                    "required": false
                },
                {
                    "id": "description",
                    "name": "Description",
                    "description": "Enter the description to be displayed on the component",
                    "type": "string",
                    "required": false
                },
                {
                    "id": "link",
                    "name": "Link",
                    "description": "Enter the link to be displayed on the component",
                    "type": "string",
                    "required": false
                },
                {
                    "id": "URL",
                    "name": "Link-URL",
                    "description": "Enter the url for when the link is clicked, to redirected page or can select category",
                    "type": "string",
                    "required": false
                },
                {
                    "id": "category",
                    "name": "Category",
                    "description": "Select Category to be displayed or can enter a URL.",
                    "type": "category",
                    "required": false
                }
            ]
        }
    ],
    "region_definitions": []
}
