{
    "hooks": [
        {
            "name": "app.payment.processor.payfort_credit",
            "script": "./cartridge/scripts/hooks/payment/processor/payfort_credit"
        },
        {
            "name": "app.payment.form.processor.payfort_credit",
            "script": "./cartridge/scripts/hooks/payment/processor/payfort_credit_form_processor"
        }
    ]
}
