{
  "name": "Links",
  "group": "commerce_layouts",
  "attribute_definition_groups": [
    {
      "id": "links",
      "attribute_definitions": [
        {
            "id": "preheader",
            "name": "Preheader",
            "description": "Enter the preheader to be displayed above the header",
            "type": "string",
            "required": false
        },
        {
            "id": "header",
            "name": "Header",
            "description": "Enter the header to be displayed above the links",
            "type": "string",
            "required": false
        },
        {
            "id": "bgColor",
            "name": "Background Color",
            "description": "Enter a hex color to be displayed as a background color. Default value is \"white\".",
            "type": "string",
            "default_value": "white",
            "required": false
        },
        {
            "id": "visibility",
            "name": "Visibility",
            "description": "Visibility of links component with respect to screen size. Default value is \"visible\".",
            "type": "enum",
            "values": [
                "visible",
                "visible-up-sm",
                "visible-up-md",
                "visible-up-lg",
                "visible-up-xl",
                "visible-down-xs",
                "visible-down-sm",
                "visible-down-md",
                "visible-down-lg",
                "hidden"
            ],
            "default_value": "visible",
            "required": false
        }
      ]
    }
  ],
  "region_definitions": [
    {
      "id":"linkItems",
      "name":"Link Items",
      "component_type_exclusions":
        [
            { "type_id": "commerce_assets.accordion" },
            { "type_id": "commerce_assets.campaignBanner" },
            { "type_id": "commerce_assets.category" },
            { "type_id": "commerce_assets.categoryTile" },
            { "type_id": "commerce_assets.countdown" },
            { "type_id": "commerce_assets.editorialRichText" },
            { "type_id": "commerce_assets.imageAndText" },
            { "type_id": "commerce_assets.mainBanner" },
            { "type_id": "commerce_assets.navbarItem" },
            { "type_id": "commerce_assets.photoTile" },
            { "type_id": "commerce_assets.popularCategory" },
            { "type_id": "commerce_assets.productTile" },
            { "type_id": "commerce_assets.shopTheLook" },
            { "type_id": "commerce_assets.sliderBanner"},
            { "type_id": "commerce_assets.sliderFullRow"},
            { "type_id": "commerce_assets.sliderHalfRow"},
            { "type_id": "commerce_layouts.carousel" },
            { "type_id": "commerce_layouts.exploreByCategory" },
            { "type_id": "commerce_layouts.fav" },
            { "type_id": "commerce_layouts.links" },
            { "type_id": "commerce_layouts.mobileGrid1r1c" },
            { "type_id": "commerce_layouts.mobileGrid2r1c" },
            { "type_id": "commerce_layouts.mobileGrid2r2c" },
            { "type_id": "commerce_layouts.mobileGrid2r3c" },
            { "type_id": "commerce_layouts.mobileGrid3r1c" },
            { "type_id": "commerce_layouts.mobileGrid3r2c" },
            { "type_id": "commerce_layouts.mobileGridLookBook" },
            { "type_id": "commerce_layouts.mobileGridStatic" },
            { "type_id": "commerce_layouts.popularCategories" },
            { "type_id": "einstein.einsteinCarousel" },
            { "type_id": "einstein.einsteinCarouselCategory" },
            { "type_id": "einstein.einsteinCarouselProduct" }
      ]
    }
  ]
}
