{
    "name": "CLP",
    "group": "commerce_layouts",
    "attribute_definition_groups": [
      {
        "id": "body",
        "attribute_definitions": [
            {
                "id": "category",
                "name": "BM Category",
                "type": "string",
                "required": true
            },
            {
                "id": "showMore",
                "name": "Show more",
                "description": "Count of Subcategories to be shown without 'show more' button",
                "type": "integer",
                "required": false
            },
            {
                "id": "subCategoriesCount",
                "name": "Max Sub Categories",
                "description": "Max count of Sub Categories to be shown",
                "type": "integer",
                "required": false
            }
        ]
      }
    ],
    "region_definitions": []
  }
