{
  "name": "Popular (Top) Categories",
  "group": "commerce_layouts",
  "attribute_definition_groups": [
    {
      "id": "heading",
      "attribute_definitions": [
        {
          "id": "textHeadline",
          "name": "categories title",
          "type": "string",
          "required": false
        }
      ]
    },
    {
      "id": "bodyConfiguration",
      "name": "Configuration",
      "description": "Configuration main content",
      "attribute_definitions": [
          {
              "id": "linkTtext",
              "name": "Show all categories link text",
              "type": "string",
              "required": false
          },
          {
              "id": "link",
              "name": "Show all categories link URL",
              "type": "url",
              "required": false
          }
      ]
    }
  ],
  "region_definitions": [
    {
      "id":"topCategory",
      "name":"top Category",
      "component_type_exclusions": []
    }
  ]
}